%YAML 1.1
%TAG !u! tag:unity3d.com,2011:
--- !u!136 &231484535
CapsuleCollider:
  m_ObjectHideFlags: 0
  m_CorrespondingSourceObject: {fileID: 0}
  m_PrefabInstance: {fileID: 0}
  m_PrefabAsset: {fileID: 0}
  m_GameObject: {fileID: 681152035065075566}
  m_Material: {fileID: 0}
  m_IsTrigger: 0
  m_Enabled: 1
  m_Radius: 1.3583598
  m_Height: 2.7167203
  m_Direction: 1
  m_Center: {x: 0, y: 0, z: 0}
--- !u!1001 &8814139567173652071
PrefabInstance:
  m_ObjectHideFlags: 0
  serializedVersion: 2
  m_Modification:
    m_TransformParent: {fileID: 0}
    m_Modifications:
    - target: {fileID: -4216859302048453862, guid: 55e51f21e4ccf7148aded35e0c5e574c,
        type: 3}
      propertyPath: m_LocalPosition.x
      value: -110.6
      objectReference: {fileID: 0}
    - target: {fileID: -4216859302048453862, guid: 55e51f21e4ccf7148aded35e0c5e574c,
        type: 3}
      propertyPath: m_LocalPosition.y
      value: 0.19
      objectReference: {fileID: 0}
    - target: {fileID: -4216859302048453862, guid: 55e51f21e4ccf7148aded35e0c5e574c,
        type: 3}
      propertyPath: m_LocalPosition.z
      value: -15.9
      objectReference: {fileID: 0}
    - target: {fileID: -4216859302048453862, guid: 55e51f21e4ccf7148aded35e0c5e574c,
        type: 3}
      propertyPath: m_LocalRotation.x
      value: 0
      objectReference: {fileID: 0}
    - target: {fileID: -4216859302048453862, guid: 55e51f21e4ccf7148aded35e0c5e574c,
        type: 3}
      propertyPath: m_LocalRotation.y
      value: -0.7071068
      objectReference: {fileID: 0}
    - target: {fileID: -4216859302048453862, guid: 55e51f21e4ccf7148aded35e0c5e574c,
        type: 3}
      propertyPath: m_LocalRotation.z
      value: 0
      objectReference: {fileID: 0}
    - target: {fileID: -4216859302048453862, guid: 55e51f21e4ccf7148aded35e0c5e574c,
        type: 3}
      propertyPath: m_LocalRotation.w
      value: 0.7071068
      objectReference: {fileID: 0}
    - target: {fileID: -4216859302048453862, guid: 55e51f21e4ccf7148aded35e0c5e574c,
        type: 3}
      propertyPath: m_RootOrder
      value: 0
      objectReference: {fileID: 0}
    - target: {fileID: -4216859302048453862, guid: 55e51f21e4ccf7148aded35e0c5e574c,
        type: 3}
      propertyPath: m_LocalEulerAnglesHint.x
      value: 0
      objectReference: {fileID: 0}
    - target: {fileID: -4216859302048453862, guid: 55e51f21e4ccf7148aded35e0c5e574c,
        type: 3}
      propertyPath: m_LocalEulerAnglesHint.y
      value: -90
      objectReference: {fileID: 0}
    - target: {fileID: -4216859302048453862, guid: 55e51f21e4ccf7148aded35e0c5e574c,
        type: 3}
      propertyPath: m_LocalEulerAnglesHint.z
      value: 0
      objectReference: {fileID: 0}
    - target: {fileID: -4216859302048453862, guid: 55e51f21e4ccf7148aded35e0c5e574c,
        type: 3}
      propertyPath: m_LocalScale.x
      value: 2
      objectReference: {fileID: 0}
    - target: {fileID: -4216859302048453862, guid: 55e51f21e4ccf7148aded35e0c5e574c,
        type: 3}
      propertyPath: m_LocalScale.y
      value: 2
      objectReference: {fileID: 0}
    - target: {fileID: -4216859302048453862, guid: 55e51f21e4ccf7148aded35e0c5e574c,
        type: 3}
      propertyPath: m_LocalScale.z
      value: 2
      objectReference: {fileID: 0}
    - target: {fileID: -927199367670048503, guid: 55e51f21e4ccf7148aded35e0c5e574c,
        type: 3}
      propertyPath: m_Name
      value: turtle
      objectReference: {fileID: 0}
    m_RemovedComponents: []
  m_SourcePrefab: {fileID: 100100000, guid: 55e51f21e4ccf7148aded35e0c5e574c, type: 3}
--- !u!1 &681152035065075566 stripped
GameObject:
  m_CorrespondingSourceObject: {fileID: -927199367670048503, guid: 55e51f21e4ccf7148aded35e0c5e574c,
    type: 3}
  m_PrefabInstance: {fileID: 8814139567173652071}
  m_PrefabAsset: {fileID: 0}
